EESchema Schematic File Version 4
EELAYER 30 0
EELAYER END
$Descr A4 11693 8268
encoding utf-8
Sheet 1 1
Title ""
Date "lun. 30 mars 2015"
Rev ""
Comp ""
Comment1 ""
Comment2 ""
Comment3 ""
Comment4 ""
$EndDescr
Text Label 8950 1450 1    60   ~ 0
Vin
Text Label 9350 1450 1    60   ~ 0
IOREF
Text Label 8900 2500 0    60   ~ 0
A0
Text Label 8900 2600 0    60   ~ 0
A1
Text Label 8900 2700 0    60   ~ 0
A2
Text Label 8900 2800 0    60   ~ 0
A3
Text Label 8900 2900 0    60   ~ 0
A4(SDA)
Text Label 8900 3000 0    60   ~ 0
A5(SCL)
Text Label 10550 3000 0    60   ~ 0
0(Rx)
Text Label 10550 2800 0    60   ~ 0
2
Text Label 10550 2900 0    60   ~ 0
1(Tx)
Text Label 10550 2700 0    60   ~ 0
3(**)
Text Label 10550 2600 0    60   ~ 0
4
Text Label 10550 2500 0    60   ~ 0
5(**)
Text Label 10550 2400 0    60   ~ 0
6(**)
Text Label 10550 2300 0    60   ~ 0
7
Text Label 10550 2100 0    60   ~ 0
8
Text Label 10550 2000 0    60   ~ 0
9(**)
Text Label 10550 1900 0    60   ~ 0
10(**/SS)
Text Label 10550 1800 0    60   ~ 0
11(**/MOSI)
Text Label 10550 1700 0    60   ~ 0
12(MISO)
Text Label 10550 1600 0    60   ~ 0
13(SCK)
Text Label 10550 1400 0    60   ~ 0
AREF
NoConn ~ 9400 1600
Text Label 10550 1300 0    60   ~ 0
A4(SDA)Alt
Text Label 10550 1200 0    60   ~ 0
A5(SCL)
Text Notes 10850 1000 0    60   ~ 0
Holes
Text Notes 8550 750  0    60   ~ 0
Shield for Arduino that uses\nthe same pin disposition\nlike "Uno" board Rev 3.
$Comp
L Connector_Generic:Conn_01x08 P1
U 1 1 56D70129
P 9600 1900
F 0 "P1" H 9600 2350 50  0000 C CNN
F 1 "Power" V 9700 1900 50  0000 C CNN
F 2 "Socket_Arduino_Uno:Socket_Strip_Arduino_1x08" V 9750 1900 20  0000 C CNN
F 3 "" H 9600 1900 50  0000 C CNN
	1    9600 1900
	1    0    0    -1  
$EndComp
Text Label 8650 1800 0    60   ~ 0
Reset
$Comp
L power:+3.3V #PWR01
U 1 1 56D70538
P 9150 1450
F 0 "#PWR01" H 9150 1300 50  0001 C CNN
F 1 "+3.3V" V 9150 1700 50  0000 C CNN
F 2 "" H 9150 1450 50  0000 C CNN
F 3 "" H 9150 1450 50  0000 C CNN
	1    9150 1450
	1    0    0    -1  
$EndComp
$Comp
L power:+5V #PWR02
U 1 1 56D707BB
P 9050 1350
F 0 "#PWR02" H 9050 1200 50  0001 C CNN
F 1 "+5V" V 9050 1550 50  0000 C CNN
F 2 "" H 9050 1350 50  0000 C CNN
F 3 "" H 9050 1350 50  0000 C CNN
	1    9050 1350
	1    0    0    -1  
$EndComp
$Comp
L power:GND #PWR03
U 1 1 56D70CC2
P 9300 3150
F 0 "#PWR03" H 9300 2900 50  0001 C CNN
F 1 "GND" H 9300 3000 50  0000 C CNN
F 2 "" H 9300 3150 50  0000 C CNN
F 3 "" H 9300 3150 50  0000 C CNN
	1    9300 3150
	1    0    0    -1  
$EndComp
$Comp
L power:GND #PWR04
U 1 1 56D70CFF
P 10300 3150
F 0 "#PWR04" H 10300 2900 50  0001 C CNN
F 1 "GND" H 10300 3000 50  0000 C CNN
F 2 "" H 10300 3150 50  0000 C CNN
F 3 "" H 10300 3150 50  0000 C CNN
	1    10300 3150
	1    0    0    -1  
$EndComp
$Comp
L Connector_Generic:Conn_01x06 P2
U 1 1 56D70DD8
P 9600 2700
F 0 "P2" H 9600 2300 50  0000 C CNN
F 1 "Analog" V 9700 2700 50  0000 C CNN
F 2 "Socket_Arduino_Uno:Socket_Strip_Arduino_1x06" V 9750 2750 20  0000 C CNN
F 3 "" H 9600 2700 50  0000 C CNN
	1    9600 2700
	1    0    0    -1  
$EndComp
$Comp
L Connector_Generic:Conn_01x01 P5
U 1 1 56D71177
P 10800 650
F 0 "P5" V 10900 650 50  0000 C CNN
F 1 "CONN_01X01" V 10900 650 50  0001 C CNN
F 2 "Socket_Arduino_Uno:Arduino_1pin" H 10721 724 20  0000 C CNN
F 3 "" H 10800 650 50  0000 C CNN
	1    10800 650 
	0    -1   -1   0   
$EndComp
$Comp
L Connector_Generic:Conn_01x01 P6
U 1 1 56D71274
P 10900 650
F 0 "P6" V 11000 650 50  0000 C CNN
F 1 "CONN_01X01" V 11000 650 50  0001 C CNN
F 2 "Socket_Arduino_Uno:Arduino_1pin" H 10900 650 20  0001 C CNN
F 3 "" H 10900 650 50  0000 C CNN
	1    10900 650 
	0    -1   -1   0   
$EndComp
$Comp
L Connector_Generic:Conn_01x01 P7
U 1 1 56D712A8
P 11000 650
F 0 "P7" V 11100 650 50  0000 C CNN
F 1 "CONN_01X01" V 11100 650 50  0001 C CNN
F 2 "Socket_Arduino_Uno:Arduino_1pin" V 11000 650 20  0001 C CNN
F 3 "" H 11000 650 50  0000 C CNN
	1    11000 650 
	0    -1   -1   0   
$EndComp
$Comp
L Connector_Generic:Conn_01x01 P8
U 1 1 56D712DB
P 11100 650
F 0 "P8" V 11200 650 50  0000 C CNN
F 1 "CONN_01X01" V 11200 650 50  0001 C CNN
F 2 "Socket_Arduino_Uno:Arduino_1pin" H 11024 572 20  0000 C CNN
F 3 "" H 11100 650 50  0000 C CNN
	1    11100 650 
	0    -1   -1   0   
$EndComp
NoConn ~ 10800 850 
NoConn ~ 10900 850 
NoConn ~ 11000 850 
NoConn ~ 11100 850 
$Comp
L Connector_Generic:Conn_01x08 P4
U 1 1 56D7164F
P 10000 2600
F 0 "P4" H 10000 2100 50  0000 C CNN
F 1 "Digital" V 10100 2600 50  0000 C CNN
F 2 "Socket_Arduino_Uno:Socket_Strip_Arduino_1x08" V 10150 2550 20  0000 C CNN
F 3 "" H 10000 2600 50  0000 C CNN
	1    10000 2600
	-1   0    0    -1  
$EndComp
Wire Notes Line
	8525 825  9925 825 
Wire Notes Line
	9925 825  9925 475 
Wire Wire Line
	9350 1450 9350 1700
Wire Wire Line
	9350 1700 9400 1700
Wire Wire Line
	9400 1900 9150 1900
Wire Wire Line
	9400 2000 9050 2000
Wire Wire Line
	9400 2300 8950 2300
Wire Wire Line
	9400 2100 9300 2100
Wire Wire Line
	9400 2200 9300 2200
Connection ~ 9300 2200
Wire Wire Line
	9400 2500 8900 2500
Wire Wire Line
	9400 2600 8900 2600
Wire Wire Line
	9400 2700 8900 2700
Wire Wire Line
	9400 2800 8900 2800
Wire Wire Line
	9400 2900 8900 2900
Wire Wire Line
	9400 3000 8900 3000
$Comp
L Connector_Generic:Conn_01x10 P3
U 1 1 56D721E0
P 10000 1600
F 0 "P3" H 10000 2150 50  0000 C CNN
F 1 "Digital" V 10100 1600 50  0000 C CNN
F 2 "Socket_Arduino_Uno:Socket_Strip_Arduino_1x10" V 10150 1600 20  0000 C CNN
F 3 "" H 10000 1600 50  0000 C CNN
	1    10000 1600
	-1   0    0    -1  
$EndComp
Wire Wire Line
	10200 2100 10550 2100
Wire Wire Line
	10200 2000 10550 2000
Wire Wire Line
	10200 1900 10550 1900
Wire Wire Line
	10200 1800 10550 1800
Wire Wire Line
	10200 1700 10550 1700
Wire Wire Line
	10200 1600 10550 1600
Wire Wire Line
	10200 1400 10550 1400
Wire Wire Line
	10200 1300 10550 1300
Wire Wire Line
	10200 1200 10550 1200
Wire Wire Line
	10200 3000 10550 3000
Wire Wire Line
	10200 2900 10550 2900
Wire Wire Line
	10200 2800 10550 2800
Wire Wire Line
	10200 2700 10550 2700
Wire Wire Line
	10200 2600 10550 2600
Wire Wire Line
	10200 2500 10550 2500
Wire Wire Line
	10200 2400 10550 2400
Wire Wire Line
	10200 2300 10550 2300
Wire Wire Line
	10200 1500 10300 1500
Wire Wire Line
	10300 1500 10300 3150
Wire Wire Line
	9300 2100 9300 2200
Wire Wire Line
	9300 2200 9300 3150
Wire Notes Line
	8500 500  8500 3450
Wire Notes Line
	8500 3450 11200 3450
Wire Wire Line
	9400 1800 8650 1800
Text Notes 9700 1600 0    60   ~ 0
1
Wire Notes Line
	11200 1000 10700 1000
Wire Notes Line
	10700 1000 10700 500 
$Comp
L Connector:Barrel_Jack_Switch J1
U 1 1 5F66A23E
P 900 1000
F 0 "J1" H 957 1317 50  0000 C CNN
F 1 "Barrel_Jack_Switch" H 957 1226 50  0000 C CNN
F 2 "Connector_BarrelJack:BarrelJack_Horizontal" H 950 960 50  0001 C CNN
F 3 "~" H 950 960 50  0001 C CNN
	1    900  1000
	1    0    0    -1  
$EndComp
$Comp
L Regulator_Linear:L7812 U1
U 1 1 5F66B6FF
P 2750 900
F 0 "U1" H 2750 1142 50  0000 C CNN
F 1 "L7812" H 2750 1051 50  0000 C CNN
F 2 "Package_TO_SOT_THT:TO-220-3_Vertical" H 2775 750 50  0001 L CIN
F 3 "http://www.st.com/content/ccc/resource/technical/document/datasheet/41/4f/b3/b0/12/d4/47/88/CD00000444.pdf/files/CD00000444.pdf/jcr:content/translations/en.CD00000444.pdf" H 2750 850 50  0001 C CNN
	1    2750 900 
	1    0    0    -1  
$EndComp
$Comp
L Device:C C2
U 1 1 5F66C454
P 2250 1200
F 0 "C2" H 2365 1246 50  0000 L CNN
F 1 "0.22uF" H 2365 1155 50  0000 L CNN
F 2 "Capacitor_THT:C_Rect_L10.3mm_W5.7mm_P7.50mm_MKS4" H 2288 1050 50  0001 C CNN
F 3 "~" H 2250 1200 50  0001 C CNN
	1    2250 1200
	1    0    0    -1  
$EndComp
$Comp
L Device:C C3
U 1 1 5F66CB3F
P 3200 1200
F 0 "C3" H 3315 1246 50  0000 L CNN
F 1 "0.1uF" H 3315 1155 50  0000 L CNN
F 2 "Capacitor_THT:C_Rect_L10.3mm_W5.7mm_P7.50mm_MKS4" H 3238 1050 50  0001 C CNN
F 3 "~" H 3200 1200 50  0001 C CNN
	1    3200 1200
	1    0    0    -1  
$EndComp
$Comp
L Device:R R1
U 1 1 5F66D36C
P 3800 1200
F 0 "R1" H 3870 1246 50  0000 L CNN
F 1 "1k" H 3870 1155 50  0000 L CNN
F 2 "Resistor_THT:R_Axial_DIN0207_L6.3mm_D2.5mm_P10.16mm_Horizontal" V 3730 1200 50  0001 C CNN
F 3 "~" H 3800 1200 50  0001 C CNN
	1    3800 1200
	1    0    0    -1  
$EndComp
$Comp
L Device:R R2
U 1 1 5F66D8A5
P 3800 1700
F 0 "R2" H 3870 1746 50  0000 L CNN
F 1 "68" H 3870 1655 50  0000 L CNN
F 2 "Resistor_THT:R_Axial_DIN0207_L6.3mm_D2.5mm_P10.16mm_Horizontal" V 3730 1700 50  0001 C CNN
F 3 "~" H 3800 1700 50  0001 C CNN
	1    3800 1700
	1    0    0    -1  
$EndComp
$Comp
L Device:CP C1
U 1 1 5F66EB63
P 1750 1500
F 0 "C1" H 1868 1546 50  0000 L CNN
F 1 "33uF" H 1868 1455 50  0000 L CNN
F 2 "Capacitor_THT:CP_Radial_D8.0mm_P3.80mm" H 1788 1350 50  0001 C CNN
F 3 "~" H 1750 1500 50  0001 C CNN
	1    1750 1500
	1    0    0    -1  
$EndComp
Wire Wire Line
	1200 1000 1200 1100
Wire Wire Line
	1200 2100 1750 2100
Wire Wire Line
	3800 2100 3800 1850
Connection ~ 1200 1100
Wire Wire Line
	1200 1100 1200 2100
Wire Wire Line
	3800 1350 3800 1450
Wire Wire Line
	3800 1050 3800 900 
Wire Wire Line
	3800 900  3200 900 
Wire Wire Line
	3200 1050 3200 900 
Connection ~ 3200 900 
Wire Wire Line
	3200 900  3050 900 
Wire Wire Line
	3800 1450 3200 1450
Wire Wire Line
	3200 1450 3200 1350
Connection ~ 3800 1450
Wire Wire Line
	3800 1450 3800 1550
Wire Wire Line
	3200 1450 2750 1450
Wire Wire Line
	2250 1450 2250 1350
Connection ~ 3200 1450
Wire Wire Line
	2250 1050 2250 900 
Wire Wire Line
	2250 900  2450 900 
Wire Wire Line
	1200 900  1300 900 
Connection ~ 2250 900 
Wire Wire Line
	1750 1350 1750 900 
Connection ~ 1750 900 
Wire Wire Line
	1750 900  2250 900 
Wire Wire Line
	1750 1650 1750 2100
Connection ~ 1750 2100
Wire Wire Line
	1750 2100 3800 2100
$Comp
L Transistor_BJT:BC337 Q1
U 1 1 5F68A1B1
P 2700 4600
F 0 "Q1" H 2891 4646 50  0000 L CNN
F 1 "BC337" H 2891 4555 50  0000 L CNN
F 2 "Package_TO_SOT_THT:TO-92_HandSolder" H 2900 4525 50  0001 L CIN
F 3 "https://diotec.com/tl_files/diotec/files/pdf/datasheets/bc337.pdf" H 2700 4600 50  0001 L CNN
	1    2700 4600
	1    0    0    -1  
$EndComp
$Comp
L power:GND #PWR05
U 1 1 5F68AE1C
P 1200 2300
F 0 "#PWR05" H 1200 2050 50  0001 C CNN
F 1 "GND" H 1205 2127 50  0000 C CNN
F 2 "" H 1200 2300 50  0001 C CNN
F 3 "" H 1200 2300 50  0001 C CNN
	1    1200 2300
	1    0    0    -1  
$EndComp
Wire Wire Line
	1200 2300 1200 2100
Connection ~ 1200 2100
$Comp
L Device:R R3
U 1 1 5F68F368
P 2050 4600
F 0 "R3" V 1843 4600 50  0000 C CNN
F 1 "4.7k" V 1934 4600 50  0000 C CNN
F 2 "Resistor_THT:R_Axial_DIN0207_L6.3mm_D2.5mm_P10.16mm_Horizontal" V 1980 4600 50  0001 C CNN
F 3 "~" H 2050 4600 50  0001 C CNN
	1    2050 4600
	0    1    1    0   
$EndComp
$Comp
L Device:R R5
U 1 1 5F691AAD
P 2800 4000
F 0 "R5" H 2730 3954 50  0000 R CNN
F 1 "10k" H 2730 4045 50  0000 R CNN
F 2 "Resistor_THT:R_Axial_DIN0207_L6.3mm_D2.5mm_P10.16mm_Horizontal" V 2730 4000 50  0001 C CNN
F 3 "~" H 2800 4000 50  0001 C CNN
	1    2800 4000
	-1   0    0    1   
$EndComp
$Comp
L Device:R R6
U 1 1 5F6A0B3C
P 3800 3550
F 0 "R6" H 3730 3504 50  0000 R CNN
F 1 "1k" H 3730 3595 50  0000 R CNN
F 2 "Resistor_THT:R_Axial_DIN0207_L6.3mm_D2.5mm_P10.16mm_Horizontal" V 3730 3550 50  0001 C CNN
F 3 "~" H 3800 3550 50  0001 C CNN
	1    3800 3550
	-1   0    0    1   
$EndComp
$Comp
L Device:LED D2
U 1 1 5F6A1694
P 3800 3900
F 0 "D2" V 3839 3782 50  0000 R CNN
F 1 "LED" V 3748 3782 50  0000 R CNN
F 2 "LED_THT:LED_D4.0mm" H 3800 3900 50  0001 C CNN
F 3 "~" H 3800 3900 50  0001 C CNN
	1    3800 3900
	0    -1   -1   0   
$EndComp
$Comp
L Device:LED D1
U 1 1 5F6ABDCD
P 1500 4900
F 0 "D1" V 1539 4782 50  0000 R CNN
F 1 "LED" V 1448 4782 50  0000 R CNN
F 2 "LED_THT:LED_D4.0mm" H 1500 4900 50  0001 C CNN
F 3 "~" H 1500 4900 50  0001 C CNN
	1    1500 4900
	-1   0    0    1   
$EndComp
$Comp
L Device:R R4
U 1 1 5F6ABDC7
P 2050 4900
F 0 "R4" H 1980 4854 50  0000 R CNN
F 1 "220" H 1980 4945 50  0000 R CNN
F 2 "Resistor_THT:R_Axial_DIN0207_L6.3mm_D2.5mm_P10.16mm_Horizontal" V 1980 4900 50  0001 C CNN
F 3 "~" H 2050 4900 50  0001 C CNN
	1    2050 4900
	0    1    1    0   
$EndComp
$Comp
L Device:C C4
U 1 1 5F6AF4D5
P 1700 5800
F 0 "C4" H 1815 5846 50  0000 L CNN
F 1 "100nF" H 1815 5755 50  0000 L CNN
F 2 "Capacitor_THT:C_Disc_D6.0mm_W2.5mm_P5.00mm" H 1738 5650 50  0001 C CNN
F 3 "~" H 1700 5800 50  0001 C CNN
	1    1700 5800
	1    0    0    -1  
$EndComp
$Comp
L Connector:Conn_01x03_Male J2
U 1 1 5F6AFCC8
P 2800 5500
F 0 "J2" H 2772 5524 50  0000 R CNN
F 1 "PIC type" H 2772 5433 50  0000 R CNN
F 2 "Connector_PinHeader_2.54mm:PinHeader_1x03_P2.54mm_Vertical" H 2800 5500 50  0001 C CNN
F 3 "~" H 2800 5500 50  0001 C CNN
	1    2800 5500
	-1   0    0    -1  
$EndComp
$Comp
L Connector:Conn_01x06_Male J3
U 1 1 5F6B286E
P 2800 6100
F 0 "J3" H 2772 6074 50  0000 R CNN
F 1 "ICSP header" H 2772 5983 50  0000 R CNN
F 2 "Connector_PinHeader_2.54mm:PinHeader_1x06_P2.54mm_Vertical" H 2800 6100 50  0001 C CNN
F 3 "~" H 2800 6100 50  0001 C CNN
	1    2800 6100
	-1   0    0    -1  
$EndComp
$Comp
L Switch:SW_Push SW1
U 1 1 5F6B6328
P 1550 6850
F 0 "SW1" V 1504 6998 50  0000 L CNN
F 1 "SW_Push" V 1595 6998 50  0000 L CNN
F 2 "Button_Switch_THT:SW_PUSH_6mm" H 1550 7050 50  0001 C CNN
F 3 "~" H 1550 7050 50  0001 C CNN
	1    1550 6850
	0    1    1    0   
$EndComp
Text Label 3750 900  0    50   ~ 0
13Vcc
$Comp
L power:GND #PWR06
U 1 1 5F6C5803
P 1550 7300
F 0 "#PWR06" H 1550 7050 50  0001 C CNN
F 1 "GND" H 1555 7127 50  0000 C CNN
F 2 "" H 1550 7300 50  0001 C CNN
F 3 "" H 1550 7300 50  0001 C CNN
	1    1550 7300
	1    0    0    -1  
$EndComp
Wire Wire Line
	3800 3700 3800 3750
Wire Wire Line
	1550 7300 1550 7050
Text Label 1100 6550 0    60   ~ 0
Reset
Wire Wire Line
	1550 6650 1550 6550
Wire Wire Line
	1550 6550 1100 6550
Wire Wire Line
	2600 5500 2300 5500
Wire Wire Line
	1700 5500 1700 5650
Wire Wire Line
	1700 5500 1050 5500
Connection ~ 1700 5500
$Comp
L power:GND #PWR07
U 1 1 5F6DD837
P 1700 6100
F 0 "#PWR07" H 1700 5850 50  0001 C CNN
F 1 "GND" H 1705 5927 50  0000 C CNN
F 2 "" H 1700 6100 50  0001 C CNN
F 3 "" H 1700 6100 50  0001 C CNN
	1    1700 6100
	1    0    0    -1  
$EndComp
Wire Wire Line
	1700 6100 1700 5950
Wire Wire Line
	2600 5700 2600 5600
Wire Wire Line
	2600 5400 2600 5300
Wire Wire Line
	2500 4600 2200 4600
Wire Wire Line
	1650 4900 1900 4900
$Comp
L power:GND #PWR08
U 1 1 5F6EEBC9
P 2200 5000
F 0 "#PWR08" H 2200 4750 50  0001 C CNN
F 1 "GND" H 2205 4827 50  0000 C CNN
F 2 "" H 2200 5000 50  0001 C CNN
F 3 "" H 2200 5000 50  0001 C CNN
	1    2200 5000
	1    0    0    -1  
$EndComp
Wire Wire Line
	2200 5000 2200 4900
Wire Wire Line
	1350 4900 1000 4900
Wire Wire Line
	1900 4600 1000 4600
$Comp
L power:GND #PWR09
U 1 1 5F6F828F
P 2800 4950
F 0 "#PWR09" H 2800 4700 50  0001 C CNN
F 1 "GND" H 2805 4777 50  0000 C CNN
F 2 "" H 2800 4950 50  0001 C CNN
F 3 "" H 2800 4950 50  0001 C CNN
	1    2800 4950
	1    0    0    -1  
$EndComp
Wire Wire Line
	2800 4950 2800 4800
Wire Wire Line
	2800 3850 2800 3300
Wire Wire Line
	2800 3300 3800 3300
Wire Wire Line
	3800 3300 3800 3400
Wire Wire Line
	2800 4150 2800 4300
$Comp
L power:GND #PWR011
U 1 1 5F70198E
P 3800 4150
F 0 "#PWR011" H 3800 3900 50  0001 C CNN
F 1 "GND" H 3805 3977 50  0000 C CNN
F 2 "" H 3800 4150 50  0001 C CNN
F 3 "" H 3800 4150 50  0001 C CNN
	1    3800 4150
	1    0    0    -1  
$EndComp
Wire Wire Line
	3800 4150 3800 4050
Text Label 3150 3300 0    50   ~ 0
13Vcc
Wire Wire Line
	2800 4300 3350 4300
Connection ~ 2800 4300
Wire Wire Line
	2800 4300 2800 4400
Wire Wire Line
	3350 5800 2600 5800
Wire Wire Line
	2600 5800 2600 5900
Wire Wire Line
	2600 6400 2600 6800
Wire Wire Line
	2600 6000 2300 6000
Text Label 1000 4600 0    50   ~ 0
A1
Text Label 1050 5500 0    60   ~ 0
2
Wire Wire Line
	3250 4550 3250 5700
Wire Wire Line
	3250 5700 2600 5700
Wire Wire Line
	2300 6000 2300 5500
Connection ~ 2300 5500
Wire Wire Line
	2300 5500 1700 5500
Wire Wire Line
	1700 6100 2600 6100
Connection ~ 1700 6100
Wire Wire Line
	2600 6200 2300 6200
Wire Wire Line
	2600 6300 2300 6300
Text Label 2300 6200 0    50   ~ 0
7
Text Label 2300 6300 0    50   ~ 0
4
Text Label 1000 4900 0    60   ~ 0
A5(SCL)
NoConn ~ 9350 1450
NoConn ~ 10550 1400
NoConn ~ 10550 1600
NoConn ~ 10550 1700
NoConn ~ 10550 1800
NoConn ~ 10550 1900
NoConn ~ 10550 2000
NoConn ~ 10550 2100
NoConn ~ 10550 2400
NoConn ~ 10550 2500
NoConn ~ 10550 2700
NoConn ~ 10550 2900
NoConn ~ 10550 3000
NoConn ~ 8900 2800
NoConn ~ 8900 2700
NoConn ~ 8900 2500
$Comp
L power:PWR_FLAG #FLG0101
U 1 1 5F87B280
P 8600 1350
F 0 "#FLG0101" H 8600 1425 50  0001 C CNN
F 1 "PWR_FLAG" H 8600 1523 50  0000 C CNN
F 2 "" H 8600 1350 50  0001 C CNN
F 3 "~" H 8600 1350 50  0001 C CNN
	1    8600 1350
	1    0    0    -1  
$EndComp
Wire Wire Line
	2750 1200 2750 1450
Connection ~ 2750 1450
Wire Wire Line
	2750 1450 2250 1450
$Comp
L power:PWR_FLAG #FLG0102
U 1 1 5F8A32BE
P 2750 1450
F 0 "#FLG0102" H 2750 1525 50  0001 C CNN
F 1 "PWR_FLAG" H 2750 1623 50  0000 C CNN
F 2 "" H 2750 1450 50  0001 C CNN
F 3 "~" H 2750 1450 50  0001 C CNN
	1    2750 1450
	-1   0    0    1   
$EndComp
$Comp
L MCU_Microchip_PIC16:PIC16F84-XXP U2
U 1 1 5F667CBC
P 4900 5350
F 0 "U2" H 4900 6431 50  0000 C CNN
F 1 "PIC16F84-XXP" H 4900 6340 50  0000 C CNN
F 2 "Package_DIP:DIP-18_W7.62mm_Socket_LongPads" H 4900 5350 50  0001 C CIN
F 3 "http://ww1.microchip.com/downloads/en/DeviceDoc/30430c.pdf" H 4900 5350 50  0001 C CNN
	1    4900 5350
	1    0    0    -1  
$EndComp
Text Label 5700 4750 0    50   ~ 0
7
Text Label 5750 6050 0    50   ~ 0
7
Text Label 4100 4950 0    50   ~ 0
4
Text Label 5750 5950 0    50   ~ 0
4
Wire Wire Line
	5600 6050 5750 6050
Wire Wire Line
	5600 4750 5700 4750
Wire Wire Line
	4100 4950 4200 4950
Wire Wire Line
	5600 5950 5750 5950
$Comp
L power:GND #PWR010
U 1 1 5F73A603
P 4900 6350
F 0 "#PWR010" H 4900 6100 50  0001 C CNN
F 1 "GND" H 4905 6177 50  0000 C CNN
F 2 "" H 4900 6350 50  0001 C CNN
F 3 "" H 4900 6350 50  0001 C CNN
	1    4900 6350
	1    0    0    -1  
$EndComp
$Comp
L Device:R R7
U 1 1 5F6B8197
P 6250 6000
F 0 "R7" H 6180 5954 50  0000 R CNN
F 1 "4.7k" H 6180 6045 50  0000 R CNN
F 2 "Resistor_THT:R_Axial_DIN0207_L6.3mm_D2.5mm_P10.16mm_Horizontal" V 6180 6000 50  0001 C CNN
F 3 "~" H 6250 6000 50  0001 C CNN
	1    6250 6000
	-1   0    0    1   
$EndComp
$Comp
L power:GND #PWR012
U 1 1 5F6B8C04
P 6250 6400
F 0 "#PWR012" H 6250 6150 50  0001 C CNN
F 1 "GND" H 6255 6227 50  0000 C CNN
F 2 "" H 6250 6400 50  0001 C CNN
F 3 "" H 6250 6400 50  0001 C CNN
	1    6250 6400
	1    0    0    -1  
$EndComp
Wire Wire Line
	6250 6150 6250 6400
Wire Wire Line
	6250 5850 6250 5750
Wire Wire Line
	6250 5750 5950 5750
$Comp
L power:GND #PWR013
U 1 1 5F73E017
P 6000 4750
F 0 "#PWR013" H 6000 4500 50  0001 C CNN
F 1 "GND" H 6005 4577 50  0000 C CNN
F 2 "" H 6000 4750 50  0001 C CNN
F 3 "" H 6000 4750 50  0001 C CNN
	1    6000 4750
	-1   0    0    1   
$EndComp
NoConn ~ 5600 5050
NoConn ~ 5600 5150
NoConn ~ 5600 5350
NoConn ~ 5600 5450
NoConn ~ 5600 5550
NoConn ~ 5600 5650
NoConn ~ 5600 5850
NoConn ~ 4200 5150
Wire Wire Line
	5950 6800 5950 5750
Wire Wire Line
	2600 6800 5950 6800
Connection ~ 5950 5750
Wire Wire Line
	5950 5750 5600 5750
Wire Wire Line
	4050 4150 6150 4150
Wire Wire Line
	6150 4150 6150 4950
Wire Wire Line
	6150 4950 5600 4950
Wire Wire Line
	6000 4850 6000 4750
Wire Wire Line
	3350 4300 3350 4750
Wire Wire Line
	3250 4550 4050 4550
Wire Wire Line
	4050 4150 4050 4550
Wire Wire Line
	4200 4750 3350 4750
Connection ~ 3350 4750
Wire Wire Line
	3350 4750 3350 5800
Wire Wire Line
	3150 4450 3150 5300
Wire Wire Line
	3150 5300 2600 5300
Wire Wire Line
	3150 4450 4900 4450
$Comp
L power:PWR_FLAG #FLG01
U 1 1 5F7FD96B
P 1200 2100
F 0 "#FLG01" H 1200 2175 50  0001 C CNN
F 1 "PWR_FLAG" V 1200 2227 50  0000 L CNN
F 2 "" H 1200 2100 50  0001 C CNN
F 3 "~" H 1200 2100 50  0001 C CNN
	1    1200 2100
	0    -1   -1   0   
$EndComp
$Comp
L power:PWR_FLAG #FLG02
U 1 1 5F7FA46F
P 1750 900
F 0 "#FLG02" H 1750 975 50  0001 C CNN
F 1 "PWR_FLAG" H 1750 1073 50  0000 C CNN
F 2 "" H 1750 900 50  0001 C CNN
F 3 "~" H 1750 900 50  0001 C CNN
	1    1750 900 
	1    0    0    -1  
$EndComp
$Comp
L power:PWR_FLAG #FLG0103
U 1 1 5F7C504B
P 2600 5300
F 0 "#FLG0103" H 2600 5375 50  0001 C CNN
F 1 "PWR_FLAG" V 2600 5427 50  0000 L CNN
F 2 "" H 2600 5300 50  0001 C CNN
F 3 "~" H 2600 5300 50  0001 C CNN
	1    2600 5300
	0    -1   -1   0   
$EndComp
Connection ~ 2600 5300
Wire Wire Line
	5600 4850 6000 4850
NoConn ~ 8900 2900
NoConn ~ 10550 1300
Wire Wire Line
	9050 1350 9050 1500
Wire Wire Line
	9150 1450 9150 1600
$Comp
L power:PWR_FLAG #FLG0104
U 1 1 5F69D852
P 8200 1350
F 0 "#FLG0104" H 8200 1425 50  0001 C CNN
F 1 "PWR_FLAG" H 8200 1523 50  0000 C CNN
F 2 "" H 8200 1350 50  0001 C CNN
F 3 "~" H 8200 1350 50  0001 C CNN
	1    8200 1350
	1    0    0    -1  
$EndComp
$Comp
L power:PWR_FLAG #FLG0105
U 1 1 5F69E342
P 7750 1350
F 0 "#FLG0105" H 7750 1425 50  0001 C CNN
F 1 "PWR_FLAG" H 7750 1523 50  0000 C CNN
F 2 "" H 7750 1350 50  0001 C CNN
F 3 "~" H 7750 1350 50  0001 C CNN
	1    7750 1350
	1    0    0    -1  
$EndComp
Wire Wire Line
	8200 1350 8200 1500
Wire Wire Line
	8200 1500 9050 1500
Connection ~ 9050 1500
Wire Wire Line
	9050 1500 9050 2000
Wire Wire Line
	7750 1350 7750 1600
Connection ~ 9150 1600
Wire Wire Line
	9150 1600 9150 1900
Wire Wire Line
	8950 1450 8950 2300
Wire Wire Line
	7750 1600 9150 1600
Wire Wire Line
	8600 1350 8600 1450
Wire Wire Line
	8600 1450 8950 1450
Wire Wire Line
	1600 900  1750 900 
$Comp
L Diode:MRA4007T3G D3
U 1 1 5F703A09
P 1450 900
F 0 "D3" H 1450 1117 50  0000 C CNN
F 1 "MRA4007T3G" H 1450 1026 50  0000 C CNN
F 2 "Diode_SMD:D_SMA" H 1450 725 50  0001 C CNN
F 3 "http://www.onsemi.com/pub_link/Collateral/MRA4003T3-D.PDF" H 1450 900 50  0001 C CNN
	1    1450 900 
	-1   0    0    -1  
$EndComp
$EndSCHEMATC
